{
  "data": [
    {
      "id_marca": 1,
      "code": 1,
      "description": "500"
    },
    {
      "id_marca": 1,
      "code": 2,
      "description": "Grande Punto"
    },
    {
      "id_marca": 1,
      "code": 3,
      "description": "Punto Evo"
    },
    {
      "id_marca": 1,
      "code": 4,
      "description": "500c"
    },
    {
      "id_marca": 1,
      "code": 5,
      "description": "695"
    },
    {
      "id_marca": 1,
      "code": 6,
      "description": "Punto"
    },
    {
      "id_marca": 2,
      "code": 7,
      "description": "155"
    },
    {
      "id_marca": 2,
      "code": 8,
      "description": "156"
    },
    {
      "id_marca": 2,
      "code": 9,
      "description": "159"
    },
    {
      "id_marca": 2,
      "code": 10,
      "description": "164"
    },
    {
      "id_marca": 2,
      "code": 11,
      "description": "145"
    },
    {
      "id_marca": 2,
      "code": 12,
      "description": "147"
    },
    {
      "id_marca": 2,
      "code": 13,
      "description": "146"
    },
    {
      "id_marca": 2,
      "code": 14,
      "description": "Gtv"
    },
    {
      "id_marca": 2,
      "code": 15,
      "description": "Spider"
    },
    {
      "id_marca": 2,
      "code": 16,
      "description": "166"
    },
    {
      "id_marca": 2,
      "code": 17,
      "description": "Gt"
    },
    {
      "id_marca": 2,
      "code": 18,
      "description": "Crosswagon"
    },
    {
      "id_marca": 2,
      "code": 19,
      "description": "Brera"
    },
    {
      "id_marca": 2,
      "code": 20,
      "description": "90"
    },
    {
      "id_marca": 2,
      "code": 21,
      "description": "75"
    },
    {
      "id_marca": 2,
      "code": 22,
      "description": "33"
    },
    {
      "id_marca": 2,
      "code": 23,
      "description": "Giulietta"
    },
    {
      "id_marca": 2,
      "code": 24,
      "description": "Sprint"
    },
    {
      "id_marca": 2,
      "code": 25,
      "description": "Mito"
    },
    {
      "id_marca": 3,
      "code": 26,
      "description": "Expander"
    },
    {
      "id_marca": 3,
      "code": 27,
      "description": "10"
    },
    {
      "id_marca": 3,
      "code": 28,
      "description": "24"
    },
    {
      "id_marca": 3,
      "code": 29,
      "description": "Dacia"
    },
    {
      "id_marca": 4,
      "code": 30,
      "description": "Rocsta"
    },
    {
      "id_marca": 5,
      "code": 31,
      "description": "Rocsta"
    },
    {
      "id_marca": 6,
      "code": 32,
      "description": "Db7"
    },
    {
      "id_marca": 6,
      "code": 33,
      "description": "V8"
    },
    {
      "id_marca": 6,
      "code": 34,
      "description": "Db9"
    },
    {
      "id_marca": 6,
      "code": 35,
      "description": "Vanquish"
    },
    {
      "id_marca": 6,
      "code": 36,
      "description": "V8 Vantage"
    },
    {
      "id_marca": 6,
      "code": 37,
      "description": "Vantage"
    },
    {
      "id_marca": 6,
      "code": 38,
      "description": "Dbs"
    },
    {
      "id_marca": 6,
      "code": 39,
      "description": "Volante"
    },
    {
      "id_marca": 6,
      "code": 40,
      "description": "Virage"
    },
    {
      "id_marca": 6,
      "code": 41,
      "description": "Vantage V8"
    },
    {
      "id_marca": 6,
      "code": 42,
      "description": "Vantage V12"
    },
    {
      "id_marca": 6,
      "code": 43,
      "description": "Rapide"
    },
    {
      "id_marca": 6,
      "code": 44,
      "description": "Cygnet"
    },
    {
      "id_marca": 7,
      "code": 45,
      "description": "80"
    },
    {
      "id_marca": 7,
      "code": 46,
      "description": "A4"
    },
    {
      "id_marca": 7,
      "code": 47,
      "description": "A6"
    },
    {
      "id_marca": 7,
      "code": 48,
      "description": "S6"
    },
    {
      "id_marca": 7,
      "code": 49,
      "description": "Coupe"
    },
    {
      "id_marca": 7,
      "code": 50,
      "description": "S2"
    },
    {
      "id_marca": 7,
      "code": 51,
      "description": "Rs2"
    },
    {
      "id_marca": 7,
      "code": 52,
      "description": "A8"
    },
    {
      "id_marca": 7,
      "code": 53,
      "description": "Cabriolet"
    },
    {
      "id_marca": 7,
      "code": 54,
      "description": "S8"
    },
    {
      "id_marca": 7,
      "code": 55,
      "description": "A3"
    },
    {
      "id_marca": 7,
      "code": 56,
      "description": "S4"
    },
    {
      "id_marca": 7,
      "code": 57,
      "description": "Tt"
    },
    {
      "id_marca": 7,
      "code": 58,
      "description": "S3"
    },
    {
      "id_marca": 7,
      "code": 59,
      "description": "Allroad Quattro"
    },
    {
      "id_marca": 7,
      "code": 60,
      "description": "Rs4"
    },
    {
      "id_marca": 7,
      "code": 61,
      "description": "A2"
    },
    {
      "id_marca": 7,
      "code": 62,
      "description": "Rs6"
    },
    {
      "id_marca": 7,
      "code": 63,
      "description": "Q7"
    },
    {
      "id_marca": 7,
      "code": 64,
      "description": "R8"
    },
    {
      "id_marca": 7,
      "code": 65,
      "description": "A5"
    },
    {
      "id_marca": 7,
      "code": 66,
      "description": "S5"
    },
    {
      "id_marca": 7,
      "code": 67,
      "description": "V8"
    },
    {
      "id_marca": 7,
      "code": 68,
      "description": "200"
    },
    {
      "id_marca": 7,
      "code": 69,
      "description": "100"
    },
    {
      "id_marca": 7,
      "code": 70,
      "description": "90"
    },
    {
      "id_marca": 7,
      "code": 71,
      "description": "Tts"
    },
    {
      "id_marca": 7,
      "code": 72,
      "description": "Q5"
    },
    {
      "id_marca": 7,
      "code": 73,
      "description": "A4 Allroad Quattro"
    },
    {
      "id_marca": 7,
      "code": 74,
      "description": "Tt Rs"
    },
    {
      "id_marca": 7,
      "code": 75,
      "description": "Rs5"
    },
    {
      "id_marca": 7,
      "code": 76,
      "description": "A1"
    },
    {
      "id_marca": 7,
      "code": 77,
      "description": "A7"
    },
    {
      "id_marca": 7,
      "code": 78,
      "description": "Rs3"
    },
    {
      "id_marca": 7,
      "code": 79,
      "description": "Q3"
    },
    {
      "id_marca": 7,
      "code": 80,
      "description": "A6 Allroad Quattro"
    },
    {
      "id_marca": 7,
      "code": 81,
      "description": "S7"
    },
    {
      "id_marca": 7,
      "code": 82,
      "description": "Sq5"
    },
    {
      "id_marca": 8,
      "code": 83,
      "description": "Mini"
    },
    {
      "id_marca": 8,
      "code": 84,
      "description": "Montego"
    },
    {
      "id_marca": 8,
      "code": 85,
      "description": "Maestro"
    },
    {
      "id_marca": 8,
      "code": 86,
      "description": "Metro"
    },
    {
      "id_marca": 8,
      "code": 87,
      "description": "Mini Moke"
    },
    {
      "id_marca": 9,
      "code": 88,
      "description": "Diesel"
    },
    {
      "id_marca": 10,
      "code": 89,
      "description": "Brooklands"
    },
    {
      "id_marca": 10,
      "code": 90,
      "description": "Turbo"
    },
    {
      "id_marca": 10,
      "code": 91,
      "description": "Continental"
    },
    {
      "id_marca": 10,
      "code": 92,
      "description": "Azure"
    },
    {
      "id_marca": 10,
      "code": 93,
      "description": "Arnage"
    },
    {
      "id_marca": 10,
      "code": 94,
      "description": "Continental Gt"
    },
    {
      "id_marca": 10,
      "code": 95,
      "description": "Continental Flying Spur"
    },
    {
      "id_marca": 10,
      "code": 96,
      "description": "Turbo R"
    },
    {
      "id_marca": 10,
      "code": 97,
      "description": "Mulsanne"
    },
    {
      "id_marca": 10,
      "code": 98,
      "description": "Eight"
    },
    {
      "id_marca": 10,
      "code": 99,
      "description": "Continental Gtc"
    },
    {
      "id_marca": 10,
      "code": 100,
      "description": "Continental Supersports"
    },
    {
      "id_marca": 11,
      "code": 101,
      "description": "Freeclimber Diesel"
    },
    {
      "id_marca": 12,
      "code": 102,
      "description": "Serie 3"
    },
    {
      "id_marca": 12,
      "code": 103,
      "description": "Serie 5"
    },
    {
      "id_marca": 12,
      "code": 104,
      "description": "Compact"
    },
    {
      "id_marca": 12,
      "code": 105,
      "description": "Serie 7"
    },
    {
      "id_marca": 12,
      "code": 106,
      "description": "Serie 8"
    },
    {
      "id_marca": 12,
      "code": 107,
      "description": "Z3"
    },
    {
      "id_marca": 12,
      "code": 108,
      "description": "Z4"
    },
    {
      "id_marca": 12,
      "code": 109,
      "description": "Z8"
    },
    {
      "id_marca": 12,
      "code": 110,
      "description": "X5"
    },
    {
      "id_marca": 12,
      "code": 111,
      "description": "Serie 6"
    },
    {
      "id_marca": 12,
      "code": 112,
      "description": "X3"
    },
    {
      "id_marca": 12,
      "code": 113,
      "description": "Serie 1"
    },
    {
      "id_marca": 12,
      "code": 114,
      "description": "Z1"
    },
    {
      "id_marca": 12,
      "code": 115,
      "description": "X6"
    },
    {
      "id_marca": 12,
      "code": 116,
      "description": "X1"
    },
    {
      "id_marca": 13,
      "code": 117,
      "description": "Seville"
    },
    {
      "id_marca": 13,
      "code": 118,
      "description": "Sts"
    },
    {
      "id_marca": 13,
      "code": 119,
      "description": "El Dorado"
    },
    {
      "id_marca": 13,
      "code": 120,
      "description": "Cts"
    },
    {
      "id_marca": 13,
      "code": 121,
      "description": "Xlr"
    },
    {
      "id_marca": 13,
      "code": 122,
      "description": "Srx"
    },
    {
      "id_marca": 13,
      "code": 123,
      "description": "Escalade"
    },
    {
      "id_marca": 13,
      "code": 124,
      "description": "Bls"
    },
    {
      "id_marca": 14,
      "code": 125,
      "description": "Corvette"
    },
    {
      "id_marca": 14,
      "code": 126,
      "description": "Blazer"
    },
    {
      "id_marca": 14,
      "code": 127,
      "description": "Astro"
    },
    {
      "id_marca": 14,
      "code": 128,
      "description": "Nubira"
    },
    {
      "id_marca": 14,
      "code": 129,
      "description": "Evanda"
    },
    {
      "id_marca": 14,
      "code": 130,
      "description": "Trans Sport"
    },
    {
      "id_marca": 14,
      "code": 131,
      "description": "Camaro"
    },
    {
      "id_marca": 14,
      "code": 132,
      "description": "Matiz"
    },
    {
      "id_marca": 14,
      "code": 133,
      "description": "Alero"
    },
    {
      "id_marca": 14,
      "code": 134,
      "description": "Tahoe"
    },
    {
      "id_marca": 14,
      "code": 135,
      "description": "Tacuma"
    },
    {
      "id_marca": 14,
      "code": 136,
      "description": "Trailblazer"
    },
    {
      "id_marca": 14,
      "code": 137,
      "description": "Kalos"
    },
    {
      "id_marca": 14,
      "code": 138,
      "description": "Aveo"
    },
    {
      "id_marca": 14,
      "code": 139,
      "description": "Lacetti"
    },
    {
      "id_marca": 14,
      "code": 140,
      "description": "Epica"
    },
    {
      "id_marca": 14,
      "code": 141,
      "description": "Captiva"
    },
    {
      "id_marca": 14,
      "code": 142,
      "description": "Hhr"
    },
    {
      "id_marca": 14,
      "code": 143,
      "description": "Cruze"
    },
    {
      "id_marca": 14,
      "code": 144,
      "description": "Spark"
    },
    {
      "id_marca": 14,
      "code": 145,
      "description": "Orlando"
    },
    {
      "id_marca": 14,
      "code": 146,
      "description": "Volt"
    },
    {
      "id_marca": 14,
      "code": 147,
      "description": "Malibu"
    },
    {
      "id_marca": 15,
      "code": 148,
      "description": "Vision"
    },
    {
      "id_marca": 15,
      "code": 149,
      "description": "300m"
    },
    {
      "id_marca": 15,
      "code": 150,
      "description": "Grand Voyager"
    },
    {
      "id_marca": 15,
      "code": 151,
      "description": "Viper"
    },
    {
      "id_marca": 15,
      "code": 152,
      "description": "Neon"
    },
    {
      "id_marca": 15,
      "code": 153,
      "description": "Voyager"
    },
    {
      "id_marca": 15,
      "code": 154,
      "description": "Stratus"
    },
    {
      "id_marca": 15,
      "code": 155,
      "description": "Sebring"
    },
    {
      "id_marca": 15,
      "code": 156,
      "description": "Sebring 200c"
    },
    {
      "id_marca": 15,
      "code": 157,
      "description": "New Yorker"
    },
    {
      "id_marca": 15,
      "code": 158,
      "description": "Pt Cruiser"
    },
    {
      "id_marca": 15,
      "code": 159,
      "description": "Crossfire"
    },
    {
      "id_marca": 15,
      "code": 160,
      "description": "300c"
    },
    {
      "id_marca": 15,
      "code": 161,
      "description": "Le Baron"
    },
    {
      "id_marca": 15,
      "code": 162,
      "description": "Saratoga"
    },
    {
      "id_marca": 16,
      "code": 163,
      "description": "Xantia"
    },
    {
      "id_marca": 16,
      "code": 164,
      "description": "Xm"
    },
    {
      "id_marca": 16,
      "code": 165,
      "description": "Ax"
    },
    {
      "id_marca": 16,
      "code": 166,
      "description": "Zx"
    },
    {
      "id_marca": 16,
      "code": 167,
      "description": "Evasion"
    },
    {
      "id_marca": 16,
      "code": 168,
      "description": "C8"
    },
    {
      "id_marca": 16,
      "code": 169,
      "description": "Saxo"
    },
    {
      "id_marca": 16,
      "code": 170,
      "description": "C2"
    },
    {
      "id_marca": 16,
      "code": 171,
      "description": "Xsara"
    },
    {
      "id_marca": 16,
      "code": 172,
      "description": "C4"
    },
    {
      "id_marca": 16,
      "code": 173,
      "description": "Xsara Picasso"
    },
    {
      "id_marca": 16,
      "code": 174,
      "description": "C5"
    },
    {
      "id_marca": 16,
      "code": 175,
      "description": "C3"
    },
    {
      "id_marca": 16,
      "code": 176,
      "description": "C3 Pluriel"
    },
    {
      "id_marca": 16,
      "code": 177,
      "description": "C1"
    },
    {
      "id_marca": 16,
      "code": 178,
      "description": "C6"
    },
    {
      "id_marca": 16,
      "code": 179,
      "description": "Grand C4 Picasso"
    },
    {
      "id_marca": 16,
      "code": 180,
      "description": "C4 Picasso"
    },
    {
      "id_marca": 16,
      "code": 181,
      "description": "Ccrosser"
    },
    {
      "id_marca": 16,
      "code": 182,
      "description": "C15"
    },
    {
      "id_marca": 16,
      "code": 183,
      "description": "Jumper"
    },
    {
      "id_marca": 16,
      "code": 184,
      "description": "Jumpy"
    },
    {
      "id_marca": 16,
      "code": 185,
      "description": "Berlingo"
    },
    {
      "id_marca": 16,
      "code": 186,
      "description": "Bx"
    },
    {
      "id_marca": 16,
      "code": 187,
      "description": "C25"
    },
    {
      "id_marca": 16,
      "code": 188,
      "description": "Cx"
    },
    {
      "id_marca": 16,
      "code": 189,
      "description": "Gsa"
    },
    {
      "id_marca": 16,
      "code": 190,
      "description": "Visa"
    },
    {
      "id_marca": 16,
      "code": 191,
      "description": "Lna"
    },
    {
      "id_marca": 16,
      "code": 192,
      "description": "2cv"
    },
    {
      "id_marca": 16,
      "code": 193,
      "description": "Nemo"
    },
    {
      "id_marca": 16,
      "code": 194,
      "description": "C4 Sedan"
    },
    {
      "id_marca": 16,
      "code": 195,
      "description": "Berlingo First"
    },
    {
      "id_marca": 16,
      "code": 196,
      "description": "C3 Picasso"
    },
    {
      "id_marca": 16,
      "code": 197,
      "description": "Ds3"
    },
    {
      "id_marca": 16,
      "code": 198,
      "description": "Czero"
    },
    {
      "id_marca": 16,
      "code": 199,
      "description": "Ds4"
    },
    {
      "id_marca": 16,
      "code": 200,
      "description": "Ds5"
    },
    {
      "id_marca": 16,
      "code": 201,
      "description": "C4 Aircross"
    },
    {
      "id_marca": 16,
      "code": 202,
      "description": "Celysee"
    },
    {
      "id_marca": 17,
      "code": 203,
      "description": "Corvette"
    },
    {
      "id_marca": 18,
      "code": 204,
      "description": "Contac"
    },
    {
      "id_marca": 18,
      "code": 205,
      "description": "Logan"
    },
    {
      "id_marca": 18,
      "code": 206,
      "description": "Sandero"
    },
    {
      "id_marca": 18,
      "code": 207,
      "description": "Duster"
    },
    {
      "id_marca": 18,
      "code": 208,
      "description": "Lodgy"
    },
    {
      "id_marca": 19,
      "code": 209,
      "description": "Nexia"
    },
    {
      "id_marca": 19,
      "code": 210,
      "description": "Aranos"
    },
    {
      "id_marca": 19,
      "code": 211,
      "description": "Lanos"
    },
    {
      "id_marca": 19,
      "code": 212,
      "description": "Nubira"
    },
    {
      "id_marca": 19,
      "code": 213,
      "description": "Compact"
    },
    {
      "id_marca": 19,
      "code": 214,
      "description": "Nubira Compact"
    },
    {
      "id_marca": 19,
      "code": 215,
      "description": "Leganza"
    },
    {
      "id_marca": 19,
      "code": 216,
      "description": "Evanda"
    },
    {
      "id_marca": 19,
      "code": 217,
      "description": "Matiz"
    },
    {
      "id_marca": 19,
      "code": 218,
      "description": "Tacuma"
    },
    {
      "id_marca": 19,
      "code": 219,
      "description": "Kalos"
    },
    {
      "id_marca": 19,
      "code": 220,
      "description": "Lacetti"
    },
    {
      "id_marca": 21,
      "code": 221,
      "description": "Applause"
    },
    {
      "id_marca": 21,
      "code": 222,
      "description": "Charade"
    },
    {
      "id_marca": 21,
      "code": 223,
      "description": "Rocky"
    },
    {
      "id_marca": 21,
      "code": 224,
      "description": "Feroza"
    },
    {
      "id_marca": 21,
      "code": 225,
      "description": "Terios"
    },
    {
      "id_marca": 21,
      "code": 226,
      "description": "Sirion"
    },
    {
      "id_marca": 22,
      "code": 227,
      "description": "Serie Xj"
    },
    {
      "id_marca": 22,
      "code": 228,
      "description": "Xj"
    },
    {
      "id_marca": 22,
      "code": 229,
      "description": "Double Six"
    },
    {
      "id_marca": 22,
      "code": 230,
      "description": "Six"
    },
    {
      "id_marca": 22,
      "code": 231,
      "description": "Series Iii"
    },
    {
      "id_marca": 23,
      "code": 232,
      "description": "Viper"
    },
    {
      "id_marca": 23,
      "code": 233,
      "description": "Caliber"
    },
    {
      "id_marca": 23,
      "code": 234,
      "description": "Nitro"
    },
    {
      "id_marca": 23,
      "code": 235,
      "description": "Avenger"
    },
    {
      "id_marca": 23,
      "code": 236,
      "description": "Journey"
    },
    {
      "id_marca": 24,
      "code": 237,
      "description": "F355"
    },
    {
      "id_marca": 24,
      "code": 238,
      "description": "360"
    },
    {
      "id_marca": 24,
      "code": 239,
      "description": "F430"
    },
    {
      "id_marca": 24,
      "code": 240,
      "description": "F512 M"
    },
    {
      "id_marca": 24,
      "code": 241,
      "description": "550 Maranello"
    },
    {
      "id_marca": 24,
      "code": 242,
      "description": "575m Maranello"
    },
    {
      "id_marca": 24,
      "code": 243,
      "description": "599"
    },
    {
      "id_marca": 24,
      "code": 244,
      "description": "456"
    },
    {
      "id_marca": 24,
      "code": 245,
      "description": "456m"
    },
    {
      "id_marca": 24,
      "code": 246,
      "description": "612"
    },
    {
      "id_marca": 24,
      "code": 247,
      "description": "F50"
    },
    {
      "id_marca": 24,
      "code": 248,
      "description": "Enzo"
    },
    {
      "id_marca": 24,
      "code": 249,
      "description": "Superamerica"
    },
    {
      "id_marca": 24,
      "code": 250,
      "description": "430"
    },
    {
      "id_marca": 24,
      "code": 251,
      "description": "348"
    },
    {
      "id_marca": 24,
      "code": 252,
      "description": "Testarossa"
    },
    {
      "id_marca": 24,
      "code": 253,
      "description": "512"
    },
    {
      "id_marca": 24,
      "code": 254,
      "description": "355"
    },
    {
      "id_marca": 24,
      "code": 255,
      "description": "F40"
    },
    {
      "id_marca": 24,
      "code": 256,
      "description": "412"
    },
    {
      "id_marca": 24,
      "code": 257,
      "description": "Mondial"
    },
    {
      "id_marca": 24,
      "code": 258,
      "description": "328"
    },
    {
      "id_marca": 24,
      "code": 259,
      "description": "California"
    },
    {
      "id_marca": 24,
      "code": 260,
      "description": "458"
    },
    {
      "id_marca": 24,
      "code": 261,
      "description": "Ff"
    },
    {
      "id_marca": 25,
      "code": 262,
      "description": "Croma"
    },
    {
      "id_marca": 25,
      "code": 263,
      "description": "Cinquecento"
    },
    {
      "id_marca": 25,
      "code": 264,
      "description": "Seicento"
    },
    {
      "id_marca": 25,
      "code": 265,
      "description": "Punto"
    },
    {
      "id_marca": 25,
      "code": 266,
      "description": "Grande Punto"
    },
    {
      "id_marca": 25,
      "code": 267,
      "description": "Panda"
    },
    {
      "id_marca": 25,
      "code": 268,
      "description": "Tipo"
    },
    {
      "id_marca": 25,
      "code": 269,
      "description": "Coupe"
    },
    {
      "id_marca": 25,
      "code": 270,
      "description": "Uno"
    },
    {
      "id_marca": 25,
      "code": 271,
      "description": "Ulysse"
    },
    {
      "id_marca": 25,
      "code": 272,
      "description": "Tempra"
    },
    {
      "id_marca": 25,
      "code": 273,
      "description": "Marea"
    },
    {
      "id_marca": 25,
      "code": 274,
      "description": "Barchetta"
    },
    {
      "id_marca": 25,
      "code": 275,
      "description": "Bravo"
    },
    {
      "id_marca": 25,
      "code": 276,
      "description": "Stilo"
    },
    {
      "id_marca": 25,
      "code": 277,
      "description": "Brava"
    },
    {
      "id_marca": 25,
      "code": 278,
      "description": "Palio Weekend"
    },
    {
      "id_marca": 25,
      "code": 279,
      "description": "600"
    },
    {
      "id_marca": 25,
      "code": 280,
      "description": "Multipla"
    },
    {
      "id_marca": 25,
      "code": 281,
      "description": "Idea"
    },
    {
      "id_marca": 25,
      "code": 282,
      "description": "Sedici"
    },
    {
      "id_marca": 25,
      "code": 283,
      "description": "Linea"
    },
    {
      "id_marca": 25,
      "code": 284,
      "description": "500"
    },
    {
      "id_marca": 25,
      "code": 285,
      "description": "Fiorino"
    },
    {
      "id_marca": 25,
      "code": 286,
      "description": "Ducato"
    },
    {
      "id_marca": 25,
      "code": 287,
      "description": "Doblo Cargo"
    },
    {
      "id_marca": 25,
      "code": 288,
      "description": "Doblo"
    },
    {
      "id_marca": 25,
      "code": 289,
      "description": "Strada"
    },
    {
      "id_marca": 25,
      "code": 290,
      "description": "Regata"
    },
    {
      "id_marca": 25,
      "code": 291,
      "description": "Talento"
    },
    {
      "id_marca": 25,
      "code": 292,
      "description": "Argenta"
    },
    {
      "id_marca": 25,
      "code": 293,
      "description": "Ritmo"
    },
    {
      "id_marca": 25,
      "code": 294,
      "description": "Punto Classic"
    },
    {
      "id_marca": 25,
      "code": 295,
      "description": "Qubo"
    },
    {
      "id_marca": 25,
      "code": 296,
      "description": "Punto Evo"
    },
    {
      "id_marca": 25,
      "code": 297,
      "description": "500c"
    },
    {
      "id_marca": 25,
      "code": 298,
      "description": "Freemont"
    },
    {
      "id_marca": 25,
      "code": 299,
      "description": "Panda Classic"
    },
    {
      "id_marca": 25,
      "code": 300,
      "description": "500l"
    },
    {
      "id_marca": 26,
      "code": 301,
      "description": "Maverick"
    },
    {
      "id_marca": 26,
      "code": 302,
      "description": "Escort"
    },
    {
      "id_marca": 26,
      "code": 303,
      "description": "Focus"
    },
    {
      "id_marca": 26,
      "code": 304,
      "description": "Mondeo"
    },
    {
      "id_marca": 26,
      "code": 305,
      "description": "Scorpio"
    },
    {
      "id_marca": 26,
      "code": 306,
      "description": "Fiesta"
    },
    {
      "id_marca": 26,
      "code": 307,
      "description": "Probe"
    },
    {
      "id_marca": 26,
      "code": 308,
      "description": "Explorer"
    },
    {
      "id_marca": 26,
      "code": 309,
      "description": "Galaxy"
    },
    {
      "id_marca": 26,
      "code": 310,
      "description": "Ka"
    },
    {
      "id_marca": 26,
      "code": 311,
      "description": "Puma"
    },
    {
      "id_marca": 26,
      "code": 312,
      "description": "Cougar"
    },
    {
      "id_marca": 26,
      "code": 313,
      "description": "Focus Cmax"
    },
    {
      "id_marca": 26,
      "code": 314,
      "description": "Fusion"
    },
    {
      "id_marca": 26,
      "code": 315,
      "description": "Streetka"
    },
    {
      "id_marca": 26,
      "code": 316,
      "description": "Cmax"
    },
    {
      "id_marca": 26,
      "code": 317,
      "description": "Smax"
    },
    {
      "id_marca": 26,
      "code": 318,
      "description": "Transit"
    },
    {
      "id_marca": 26,
      "code": 319,
      "description": "Courier"
    },
    {
      "id_marca": 26,
      "code": 320,
      "description": "Ranger"
    },
    {
      "id_marca": 26,
      "code": 321,
      "description": "Sierra"
    },
    {
      "id_marca": 26,
      "code": 322,
      "description": "Orion"
    },
    {
      "id_marca": 26,
      "code": 323,
      "description": "Pick Up"
    },
    {
      "id_marca": 26,
      "code": 324,
      "description": "Capri"
    },
    {
      "id_marca": 26,
      "code": 325,
      "description": "Granada"
    },
    {
      "id_marca": 26,
      "code": 326,
      "description": "Kuga"
    },
    {
      "id_marca": 26,
      "code": 327,
      "description": "Grand Cmax"
    },
    {
      "id_marca": 26,
      "code": 328,
      "description": "Bmax"
    },
    {
      "id_marca": 26,
      "code": 329,
      "description": "Tourneo Custom"
    },
    {
      "id_marca": 27,
      "code": 330,
      "description": "Exceed"
    },
    {
      "id_marca": 27,
      "code": 331,
      "description": "Santamo"
    },
    {
      "id_marca": 27,
      "code": 332,
      "description": "Super Exceed"
    },
    {
      "id_marca": 29,
      "code": 333,
      "description": "Accord"
    },
    {
      "id_marca": 29,
      "code": 334,
      "description": "Civic"
    },
    {
      "id_marca": 29,
      "code": 335,
      "description": "Crx"
    },
    {
      "id_marca": 29,
      "code": 336,
      "description": "Prelude"
    },
    {
      "id_marca": 29,
      "code": 337,
      "description": "Nsx"
    },
    {
      "id_marca": 29,
      "code": 338,
      "description": "Legend"
    },
    {
      "id_marca": 29,
      "code": 339,
      "description": "Crv"
    },
    {
      "id_marca": 29,
      "code": 340,
      "description": "Hrv"
    },
    {
      "id_marca": 29,
      "code": 341,
      "description": "Logo"
    },
    {
      "id_marca": 29,
      "code": 342,
      "description": "S2000"
    },
    {
      "id_marca": 29,
      "code": 343,
      "description": "Stream"
    },
    {
      "id_marca": 29,
      "code": 344,
      "description": "Jazz"
    },
    {
      "id_marca": 29,
      "code": 345,
      "description": "Frv"
    },
    {
      "id_marca": 29,
      "code": 346,
      "description": "Concerto"
    },
    {
      "id_marca": 29,
      "code": 347,
      "description": "Insight"
    },
    {
      "id_marca": 29,
      "code": 348,
      "description": "Crz"
    },
    {
      "id_marca": 30,
      "code": 349,
      "description": "H2"
    },
    {
      "id_marca": 30,
      "code": 350,
      "description": "H3"
    },
    {
      "id_marca": 30,
      "code": 351,
      "description": "H3t"
    },
    {
      "id_marca": 31,
      "code": 352,
      "description": "Lantra"
    },
    {
      "id_marca": 31,
      "code": 353,
      "description": "Sonata"
    },
    {
      "id_marca": 31,
      "code": 354,
      "description": "Elantra"
    },
    {
      "id_marca": 31,
      "code": 355,
      "description": "Accent"
    },
    {
      "id_marca": 31,
      "code": 356,
      "description": "Scoupe"
    },
    {
      "id_marca": 31,
      "code": 357,
      "description": "Coupe"
    },
    {
      "id_marca": 31,
      "code": 358,
      "description": "Atos"
    },
    {
      "id_marca": 31,
      "code": 359,
      "description": "H1"
    },
    {
      "id_marca": 31,
      "code": 360,
      "description": "Atos Prime"
    },
    {
      "id_marca": 31,
      "code": 361,
      "description": "Xg"
    },
    {
      "id_marca": 31,
      "code": 362,
      "description": "Trajet"
    },
    {
      "id_marca": 31,
      "code": 363,
      "description": "Santa Fe"
    },
    {
      "id_marca": 31,
      "code": 364,
      "description": "Terracan"
    },
    {
      "id_marca": 31,
      "code": 365,
      "description": "Matrix"
    },
    {
      "id_marca": 31,
      "code": 366,
      "description": "Getz"
    },
    {
      "id_marca": 31,
      "code": 367,
      "description": "Tucson"
    },
    {
      "id_marca": 31,
      "code": 368,
      "description": "I30"
    },
    {
      "id_marca": 31,
      "code": 369,
      "description": "Pony"
    },
    {
      "id_marca": 31,
      "code": 370,
      "description": "Grandeur"
    },
    {
      "id_marca": 31,
      "code": 371,
      "description": "I10"
    },
    {
      "id_marca": 31,
      "code": 372,
      "description": "I800"
    },
    {
      "id_marca": 31,
      "code": 373,
      "description": "Sonata Fl"
    },
    {
      "id_marca": 31,
      "code": 374,
      "description": "Ix55"
    },
    {
      "id_marca": 31,
      "code": 375,
      "description": "I20"
    },
    {
      "id_marca": 31,
      "code": 376,
      "description": "Ix35"
    },
    {
      "id_marca": 31,
      "code": 377,
      "description": "Ix20"
    },
    {
      "id_marca": 31,
      "code": 378,
      "description": "Genesis"
    },
    {
      "id_marca": 31,
      "code": 379,
      "description": "I40"
    },
    {
      "id_marca": 31,
      "code": 380,
      "description": "Veloster"
    },
    {
      "id_marca": 32,
      "code": 381,
      "description": "G"
    },
    {
      "id_marca": 32,
      "code": 382,
      "description": "Ex"
    },
    {
      "id_marca": 32,
      "code": 383,
      "description": "Fx"
    },
    {
      "id_marca": 32,
      "code": 384,
      "description": "M"
    },
    {
      "id_marca": 33,
      "code": 385,
      "description": "Elba"
    },
    {
      "id_marca": 33,
      "code": 386,
      "description": "Minitre"
    },
    {
      "id_marca": 34,
      "code": 387,
      "description": "Trooper"
    },
    {
      "id_marca": 34,
      "code": 388,
      "description": "Pick Up"
    },
    {
      "id_marca": 34,
      "code": 389,
      "description": "D Max"
    },
    {
      "id_marca": 34,
      "code": 390,
      "description": "Rodeo"
    },
    {
      "id_marca": 34,
      "code": 391,
      "description": "Dmax"
    },
    {
      "id_marca": 34,
      "code": 392,
      "description": "Trroper"
    },
    {
      "id_marca": 35,
      "code": 393,
      "description": "Daily"
    },
    {
      "id_marca": 35,
      "code": 394,
      "description": "Massif"
    },
    {
      "id_marca": 36,
      "code": 395,
      "description": "Daily"
    },
    {
      "id_marca": 36,
      "code": 396,
      "description": "Duty"
    },
    {
      "id_marca": 37,
      "code": 397,
      "description": "Serie Xj"
    },
    {
      "id_marca": 37,
      "code": 398,
      "description": "Serie Xk"
    },
    {
      "id_marca": 37,
      "code": 399,
      "description": "Xj"
    },
    {
      "id_marca": 37,
      "code": 400,
      "description": "Stype"
    },
    {
      "id_marca": 37,
      "code": 401,
      "description": "Xf"
    },
    {
      "id_marca": 37,
      "code": 402,
      "description": "Xtype"
    },
    {
      "id_marca": 38,
      "code": 403,
      "description": "Wrangler"
    },
    {
      "id_marca": 38,
      "code": 404,
      "description": "Cherokee"
    },
    {
      "id_marca": 38,
      "code": 405,
      "description": "Grand Cherokee"
    },
    {
      "id_marca": 38,
      "code": 406,
      "description": "Commander"
    },
    {
      "id_marca": 38,
      "code": 407,
      "description": "Compass"
    },
    {
      "id_marca": 38,
      "code": 408,
      "description": "Wrangler Unlimited"
    },
    {
      "id_marca": 38,
      "code": 409,
      "description": "Patriot"
    },
    {
      "id_marca": 39,
      "code": 410,
      "description": "Sportage"
    },
    {
      "id_marca": 39,
      "code": 411,
      "description": "Sephia"
    },
    {
      "id_marca": 39,
      "code": 412,
      "description": "Sephia Ii"
    },
    {
      "id_marca": 39,
      "code": 413,
      "description": "Pride"
    },
    {
      "id_marca": 39,
      "code": 414,
      "description": "Clarus"
    },
    {
      "id_marca": 39,
      "code": 415,
      "description": "Shuma"
    },
    {
      "id_marca": 39,
      "code": 416,
      "description": "Carnival"
    },
    {
      "id_marca": 39,
      "code": 417,
      "description": "Joice"
    },
    {
      "id_marca": 39,
      "code": 418,
      "description": "Magentis"
    },
    {
      "id_marca": 39,
      "code": 419,
      "description": "Carens"
    },
    {
      "id_marca": 39,
      "code": 420,
      "description": "Rio"
    },
    {
      "id_marca": 39,
      "code": 421,
      "description": "Cerato"
    },
    {
      "id_marca": 39,
      "code": 422,
      "description": "Sorento"
    },
    {
      "id_marca": 39,
      "code": 423,
      "description": "Opirus"
    },
    {
      "id_marca": 39,
      "code": 424,
      "description": "Picanto"
    },
    {
      "id_marca": 39,
      "code": 425,
      "description": "Ceed"
    },
    {
      "id_marca": 39,
      "code": 426,
      "description": "Ceed Sporty Wagon"
    },
    {
      "id_marca": 39,
      "code": 427,
      "description": "Proceed"
    },
    {
      "id_marca": 39,
      "code": 428,
      "description": "K2500 Frontier"
    },
    {
      "id_marca": 39,
      "code": 429,
      "description": "K2500"
    },
    {
      "id_marca": 39,
      "code": 430,
      "description": "Soul"
    },
    {
      "id_marca": 39,
      "code": 431,
      "description": "Venga"
    },
    {
      "id_marca": 39,
      "code": 432,
      "description": "Optima"
    },
    {
      "id_marca": 39,
      "code": 433,
      "description": "Ceed Sportswagon"
    },
    {
      "id_marca": 40,
      "code": 434,
      "description": "Samara"
    },
    {
      "id_marca": 40,
      "code": 435,
      "description": "Niva"
    },
    {
      "id_marca": 40,
      "code": 436,
      "description": "Sagona"
    },
    {
      "id_marca": 40,
      "code": 437,
      "description": "Stawra 2110"
    },
    {
      "id_marca": 40,
      "code": 438,
      "description": "214"
    },
    {
      "id_marca": 40,
      "code": 439,
      "description": "Kalina"
    },
    {
      "id_marca": 40,
      "code": 440,
      "description": "Serie 2100"
    },
    {
      "id_marca": 40,
      "code": 441,
      "description": "Priora"
    },
    {
      "id_marca": 41,
      "code": 442,
      "description": "Gallardo"
    },
    {
      "id_marca": 41,
      "code": 443,
      "description": "Murcielago"
    },
    {
      "id_marca": 41,
      "code": 444,
      "description": "Aventador"
    },
    {
      "id_marca": 42,
      "code": 445,
      "description": "Delta"
    },
    {
      "id_marca": 42,
      "code": 446,
      "description": "K"
    },
    {
      "id_marca": 42,
      "code": 447,
      "description": "Y10"
    },
    {
      "id_marca": 42,
      "code": 448,
      "description": "Dedra"
    },
    {
      "id_marca": 42,
      "code": 449,
      "description": "Lybra"
    },
    {
      "id_marca": 42,
      "code": 450,
      "description": "Z"
    },
    {
      "id_marca": 42,
      "code": 451,
      "description": "Y"
    },
    {
      "id_marca": 42,
      "code": 452,
      "description": "Ypsilon"
    },
    {
      "id_marca": 42,
      "code": 453,
      "description": "Thesis"
    },
    {
      "id_marca": 42,
      "code": 454,
      "description": "Phedra"
    },
    {
      "id_marca": 42,
      "code": 455,
      "description": "Musa"
    },
    {
      "id_marca": 42,
      "code": 456,
      "description": "Thema"
    },
    {
      "id_marca": 42,
      "code": 457,
      "description": "Zeta"
    },
    {
      "id_marca": 42,
      "code": 458,
      "description": "Kappa"
    },
    {
      "id_marca": 42,
      "code": 459,
      "description": "Trevi"
    },
    {
      "id_marca": 42,
      "code": 460,
      "description": "Prisma"
    },
    {
      "id_marca": 42,
      "code": 461,
      "description": "A112"
    },
    {
      "id_marca": 42,
      "code": 462,
      "description": "Ypsilon Elefantino"
    },
    {
      "id_marca": 42,
      "code": 463,
      "description": "Voyager"
    },
    {
      "id_marca": 43,
      "code": 464,
      "description": "Range Rover"
    },
    {
      "id_marca": 43,
      "code": 465,
      "description": "Defender"
    },
    {
      "id_marca": 43,
      "code": 466,
      "description": "Discovery"
    },
    {
      "id_marca": 43,
      "code": 467,
      "description": "Freelander"
    },
    {
      "id_marca": 43,
      "code": 468,
      "description": "Range Rover Sport"
    },
    {
      "id_marca": 43,
      "code": 469,
      "description": "Discovery 4"
    },
    {
      "id_marca": 43,
      "code": 470,
      "description": "Range Rover Evoque"
    },
    {
      "id_marca": 44,
      "code": 471,
      "description": "Maxus"
    },
    {
      "id_marca": 45,
      "code": 472,
      "description": "Ls400"
    },
    {
      "id_marca": 45,
      "code": 473,
      "description": "Ls430"
    },
    {
      "id_marca": 45,
      "code": 474,
      "description": "Gs300"
    },
    {
      "id_marca": 45,
      "code": 475,
      "description": "Is200"
    },
    {
      "id_marca": 45,
      "code": 476,
      "description": "Rx300"
    },
    {
      "id_marca": 45,
      "code": 477,
      "description": "Gs430"
    },
    {
      "id_marca": 45,
      "code": 478,
      "description": "Gs460"
    },
    {
      "id_marca": 45,
      "code": 479,
      "description": "Sc430"
    },
    {
      "id_marca": 45,
      "code": 480,
      "description": "Is300"
    },
    {
      "id_marca": 45,
      "code": 481,
      "description": "Is250"
    },
    {
      "id_marca": 45,
      "code": 482,
      "description": "Rx400h"
    },
    {
      "id_marca": 45,
      "code": 483,
      "description": "Is220d"
    },
    {
      "id_marca": 45,
      "code": 484,
      "description": "Rx350"
    },
    {
      "id_marca": 45,
      "code": 485,
      "description": "Gs450h"
    },
    {
      "id_marca": 45,
      "code": 486,
      "description": "Ls460"
    },
    {
      "id_marca": 45,
      "code": 487,
      "description": "Ls600h"
    },
    {
      "id_marca": 45,
      "code": 488,
      "description": "Ls"
    },
    {
      "id_marca": 45,
      "code": 489,
      "description": "Gs"
    },
    {
      "id_marca": 45,
      "code": 490,
      "description": "Is"
    },
    {
      "id_marca": 45,
      "code": 491,
      "description": "Sc"
    },
    {
      "id_marca": 45,
      "code": 492,
      "description": "Rx"
    },
    {
      "id_marca": 45,
      "code": 493,
      "description": "Ct"
    },
    {
      "id_marca": 46,
      "code": 494,
      "description": "Elise"
    },
    {
      "id_marca": 46,
      "code": 495,
      "description": "Exige"
    },
    {
      "id_marca": 47,
      "code": 496,
      "description": "Bolero Pickup"
    },
    {
      "id_marca": 47,
      "code": 497,
      "description": "Goa Pickup"
    },
    {
      "id_marca": 47,
      "code": 498,
      "description": "Goa"
    },
    {
      "id_marca": 47,
      "code": 499,
      "description": "Cj"
    },
    {
      "id_marca": 47,
      "code": 500,
      "description": "Pikup"
    },
    {
      "id_marca": 47,
      "code": 501,
      "description": "Thar"
    },
    {
      "id_marca": 48,
      "code": 502,
      "description": "Ghibli"
    },
    {
      "id_marca": 48,
      "code": 503,
      "description": "Shamal"
    },
    {
      "id_marca": 48,
      "code": 504,
      "description": "Quattroporte"
    },
    {
      "id_marca": 48,
      "code": 505,
      "description": "3200 Gt"
    },
    {
      "id_marca": 48,
      "code": 506,
      "description": "Coupe"
    },
    {
      "id_marca": 48,
      "code": 507,
      "description": "Spyder"
    },
    {
      "id_marca": 48,
      "code": 508,
      "description": "Gransport"
    },
    {
      "id_marca": 48,
      "code": 509,
      "description": "Granturismo"
    },
    {
      "id_marca": 48,
      "code": 510,
      "description": "430"
    },
    {
      "id_marca": 48,
      "code": 511,
      "description": "Biturbo"
    },
    {
      "id_marca": 48,
      "code": 512,
      "description": "228"
    },
    {
      "id_marca": 48,
      "code": 513,
      "description": "224"
    },
    {
      "id_marca": 48,
      "code": 514,
      "description": "Grancabrio"
    },
    {
      "id_marca": 49,
      "code": 515,
      "description": "Maybach"
    },
    {
      "id_marca": 50,
      "code": 516,
      "description": "Xedos 6"
    },
    {
      "id_marca": 50,
      "code": 517,
      "description": "626"
    },
    {
      "id_marca": 50,
      "code": 518,
      "description": "121"
    },
    {
      "id_marca": 50,
      "code": 519,
      "description": "Xedos 9"
    },
    {
      "id_marca": 50,
      "code": 520,
      "description": "323"
    },
    {
      "id_marca": 50,
      "code": 521,
      "description": "Mx3"
    },
    {
      "id_marca": 50,
      "code": 522,
      "description": "Rx7"
    },
    {
      "id_marca": 50,
      "code": 523,
      "description": "Mx5"
    },
    {
      "id_marca": 50,
      "code": 524,
      "description": "Mazda3"
    },
    {
      "id_marca": 50,
      "code": 525,
      "description": "Mpv"
    },
    {
      "id_marca": 50,
      "code": 526,
      "description": "Demio"
    },
    {
      "id_marca": 50,
      "code": 527,
      "description": "Premacy"
    },
    {
      "id_marca": 50,
      "code": 528,
      "description": "Tribute"
    },
    {
      "id_marca": 50,
      "code": 529,
      "description": "Mazda6"
    },
    {
      "id_marca": 50,
      "code": 530,
      "description": "Mazda2"
    },
    {
      "id_marca": 50,
      "code": 531,
      "description": "Rx8"
    },
    {
      "id_marca": 50,
      "code": 532,
      "description": "Mazda5"
    },
    {
      "id_marca": 50,
      "code": 533,
      "description": "Cx7"
    },
    {
      "id_marca": 50,
      "code": 534,
      "description": "Serie B"
    },
    {
      "id_marca": 50,
      "code": 535,
      "description": "B2500"
    },
    {
      "id_marca": 50,
      "code": 536,
      "description": "Bt50"
    },
    {
      "id_marca": 50,
      "code": 537,
      "description": "Mx6"
    },
    {
      "id_marca": 50,
      "code": 538,
      "description": "929"
    },
    {
      "id_marca": 50,
      "code": 539,
      "description": "Cx5"
    },
    {
      "id_marca": 51,
      "code": 540,
      "description": "Clase C"
    },
    {
      "id_marca": 51,
      "code": 541,
      "description": "Clase E"
    },
    {
      "id_marca": 51,
      "code": 542,
      "description": "Clase Sl"
    },
    {
      "id_marca": 51,
      "code": 543,
      "description": "Clase S"
    },
    {
      "id_marca": 51,
      "code": 544,
      "description": "Clase Cl"
    },
    {
      "id_marca": 51,
      "code": 545,
      "description": "Clase G"
    },
    {
      "id_marca": 51,
      "code": 546,
      "description": "Clase Slk"
    },
    {
      "id_marca": 51,
      "code": 547,
      "description": "Clase V"
    },
    {
      "id_marca": 51,
      "code": 548,
      "description": "Viano"
    },
    {
      "id_marca": 51,
      "code": 549,
      "description": "Clase Clk"
    },
    {
      "id_marca": 51,
      "code": 550,
      "description": "Clase A"
    },
    {
      "id_marca": 51,
      "code": 551,
      "description": "Clase M"
    },
    {
      "id_marca": 51,
      "code": 552,
      "description": "Vaneo"
    },
    {
      "id_marca": 51,
      "code": 553,
      "description": "Slklasse"
    },
    {
      "id_marca": 51,
      "code": 554,
      "description": "Slr Mclaren"
    },
    {
      "id_marca": 51,
      "code": 555,
      "description": "Clase Cls"
    },
    {
      "id_marca": 51,
      "code": 556,
      "description": "Clase R"
    },
    {
      "id_marca": 51,
      "code": 557,
      "description": "Clase Gl"
    },
    {
      "id_marca": 51,
      "code": 558,
      "description": "Clase B"
    },
    {
      "id_marca": 51,
      "code": 559,
      "description": "100d"
    },
    {
      "id_marca": 51,
      "code": 560,
      "description": "140d"
    },
    {
      "id_marca": 51,
      "code": 561,
      "description": "180d"
    },
    {
      "id_marca": 51,
      "code": 562,
      "description": "Sprinter"
    },
    {
      "id_marca": 51,
      "code": 563,
      "description": "Vito"
    },
    {
      "id_marca": 51,
      "code": 564,
      "description": "Transporter"
    },
    {
      "id_marca": 51,
      "code": 565,
      "description": "280"
    },
    {
      "id_marca": 51,
      "code": 566,
      "description": "220"
    },
    {
      "id_marca": 51,
      "code": 567,
      "description": "200"
    },
    {
      "id_marca": 51,
      "code": 568,
      "description": "190"
    },
    {
      "id_marca": 51,
      "code": 569,
      "description": "600"
    },
    {
      "id_marca": 51,
      "code": 570,
      "description": "400"
    },
    {
      "id_marca": 51,
      "code": 571,
      "description": "Clase Sl R129"
    },
    {
      "id_marca": 51,
      "code": 572,
      "description": "300"
    },
    {
      "id_marca": 51,
      "code": 573,
      "description": "500"
    },
    {
      "id_marca": 51,
      "code": 574,
      "description": "420"
    },
    {
      "id_marca": 51,
      "code": 575,
      "description": "260"
    },
    {
      "id_marca": 51,
      "code": 576,
      "description": "230"
    },
    {
      "id_marca": 51,
      "code": 577,
      "description": "Clase Clc"
    },
    {
      "id_marca": 51,
      "code": 578,
      "description": "Clase Glk"
    },
    {
      "id_marca": 51,
      "code": 579,
      "description": "Sls Amg"
    },
    {
      "id_marca": 52,
      "code": 580,
      "description": "Mgf"
    },
    {
      "id_marca": 52,
      "code": 581,
      "description": "Tf"
    },
    {
      "id_marca": 52,
      "code": 582,
      "description": "Zr"
    },
    {
      "id_marca": 52,
      "code": 583,
      "description": "Zs"
    },
    {
      "id_marca": 52,
      "code": 584,
      "description": "Zt"
    },
    {
      "id_marca": 52,
      "code": 585,
      "description": "Ztt"
    },
    {
      "id_marca": 52,
      "code": 586,
      "description": "Mini"
    },
    {
      "id_marca": 52,
      "code": 587,
      "description": "Countryman"
    },
    {
      "id_marca": 52,
      "code": 588,
      "description": "Paceman"
    },
    {
      "id_marca": 54,
      "code": 589,
      "description": "Montero"
    },
    {
      "id_marca": 54,
      "code": 590,
      "description": "Galant"
    },
    {
      "id_marca": 54,
      "code": 591,
      "description": "Colt"
    },
    {
      "id_marca": 54,
      "code": 592,
      "description": "Space Wagon"
    },
    {
      "id_marca": 54,
      "code": 593,
      "description": "Space Runner"
    },
    {
      "id_marca": 54,
      "code": 594,
      "description": "Space Gear"
    },
    {
      "id_marca": 54,
      "code": 595,
      "description": "3000 Gt"
    },
    {
      "id_marca": 54,
      "code": 596,
      "description": "Carisma"
    },
    {
      "id_marca": 54,
      "code": 597,
      "description": "Eclipse"
    },
    {
      "id_marca": 54,
      "code": 598,
      "description": "Space Star"
    },
    {
      "id_marca": 54,
      "code": 599,
      "description": "Montero Sport"
    },
    {
      "id_marca": 54,
      "code": 600,
      "description": "Montero Io"
    },
    {
      "id_marca": 54,
      "code": 601,
      "description": "Outlander"
    },
    {
      "id_marca": 54,
      "code": 602,
      "description": "Lancer"
    },
    {
      "id_marca": 54,
      "code": 603,
      "description": "Grandis"
    },
    {
      "id_marca": 54,
      "code": 604,
      "description": "L200"
    },
    {
      "id_marca": 54,
      "code": 605,
      "description": "Canter"
    },
    {
      "id_marca": 54,
      "code": 606,
      "description": "300 Gt"
    },
    {
      "id_marca": 54,
      "code": 607,
      "description": "Asx"
    },
    {
      "id_marca": 54,
      "code": 608,
      "description": "Imiev"
    },
    {
      "id_marca": 55,
      "code": 609,
      "description": "44"
    },
    {
      "id_marca": 55,
      "code": 610,
      "description": "Plus 8"
    },
    {
      "id_marca": 55,
      "code": 611,
      "description": "Aero 8"
    },
    {
      "id_marca": 55,
      "code": 612,
      "description": "V6"
    },
    {
      "id_marca": 55,
      "code": 613,
      "description": "Roadster"
    },
    {
      "id_marca": 55,
      "code": 614,
      "description": "4"
    },
    {
      "id_marca": 55,
      "code": 615,
      "description": "Plus 4"
    },
    {
      "id_marca": 56,
      "code": 616,
      "description": "Terrano Ii"
    },
    {
      "id_marca": 56,
      "code": 617,
      "description": "Terrano"
    },
    {
      "id_marca": 56,
      "code": 618,
      "description": "Micra"
    },
    {
      "id_marca": 56,
      "code": 619,
      "description": "Sunny"
    },
    {
      "id_marca": 56,
      "code": 620,
      "description": "Primera"
    },
    {
      "id_marca": 56,
      "code": 621,
      "description": "Serena"
    },
    {
      "id_marca": 56,
      "code": 622,
      "description": "Patrol"
    },
    {
      "id_marca": 56,
      "code": 623,
      "description": "Maxima Qx"
    },
    {
      "id_marca": 56,
      "code": 624,
      "description": "200 Sx"
    },
    {
      "id_marca": 56,
      "code": 625,
      "description": "300 Zx"
    },
    {
      "id_marca": 56,
      "code": 626,
      "description": "Patrol Gr"
    },
    {
      "id_marca": 56,
      "code": 627,
      "description": "100 Nx"
    },
    {
      "id_marca": 56,
      "code": 628,
      "description": "Almera"
    },
    {
      "id_marca": 56,
      "code": 629,
      "description": "Pathfinder"
    },
    {
      "id_marca": 56,
      "code": 630,
      "description": "Almera Tino"
    },
    {
      "id_marca": 56,
      "code": 631,
      "description": "Xtrail"
    },
    {
      "id_marca": 56,
      "code": 632,
      "description": "350z"
    },
    {
      "id_marca": 56,
      "code": 633,
      "description": "Murano"
    },
    {
      "id_marca": 56,
      "code": 634,
      "description": "Note"
    },
    {
      "id_marca": 56,
      "code": 635,
      "description": "Qashqai"
    },
    {
      "id_marca": 56,
      "code": 636,
      "description": "Tiida"
    },
    {
      "id_marca": 56,
      "code": 637,
      "description": "Vanette"
    },
    {
      "id_marca": 56,
      "code": 638,
      "description": "Trade"
    },
    {
      "id_marca": 56,
      "code": 639,
      "description": "Vanette Cargo"
    },
    {
      "id_marca": 56,
      "code": 640,
      "description": "Pickup"
    },
    {
      "id_marca": 56,
      "code": 641,
      "description": "Navara"
    },
    {
      "id_marca": 56,
      "code": 642,
      "description": "Cabstar E"
    },
    {
      "id_marca": 56,
      "code": 643,
      "description": "Cabstar"
    },
    {
      "id_marca": 56,
      "code": 644,
      "description": "Maxima"
    },
    {
      "id_marca": 56,
      "code": 645,
      "description": "Camion"
    },
    {
      "id_marca": 56,
      "code": 646,
      "description": "Prairie"
    },
    {
      "id_marca": 56,
      "code": 647,
      "description": "Bluebird"
    },
    {
      "id_marca": 56,
      "code": 648,
      "description": "Np300 Pick Up"
    },
    {
      "id_marca": 56,
      "code": 649,
      "description": "Qashqai2"
    },
    {
      "id_marca": 56,
      "code": 650,
      "description": "Pixo"
    },
    {
      "id_marca": 56,
      "code": 651,
      "description": "Gtr"
    },
    {
      "id_marca": 56,
      "code": 652,
      "description": "370z"
    },
    {
      "id_marca": 56,
      "code": 653,
      "description": "Cube"
    },
    {
      "id_marca": 56,
      "code": 654,
      "description": "Juke"
    },
    {
      "id_marca": 56,
      "code": 655,
      "description": "Leaf"
    },
    {
      "id_marca": 56,
      "code": 656,
      "description": "Evalia"
    },
    {
      "id_marca": 57,
      "code": 657,
      "description": "Astra"
    },
    {
      "id_marca": 57,
      "code": 658,
      "description": "Vectra"
    },
    {
      "id_marca": 57,
      "code": 659,
      "description": "Calibra"
    },
    {
      "id_marca": 57,
      "code": 660,
      "description": "Corsa"
    },
    {
      "id_marca": 57,
      "code": 661,
      "description": "Omega"
    },
    {
      "id_marca": 57,
      "code": 662,
      "description": "Frontera"
    },
    {
      "id_marca": 57,
      "code": 663,
      "description": "Tigra"
    },
    {
      "id_marca": 57,
      "code": 664,
      "description": "Monterey"
    },
    {
      "id_marca": 57,
      "code": 665,
      "description": "Sintra"
    },
    {
      "id_marca": 57,
      "code": 666,
      "description": "Zafira"
    },
    {
      "id_marca": 57,
      "code": 667,
      "description": "Agila"
    },
    {
      "id_marca": 57,
      "code": 668,
      "description": "Speedster"
    },
    {
      "id_marca": 57,
      "code": 669,
      "description": "Signum"
    },
    {
      "id_marca": 57,
      "code": 670,
      "description": "Meriva"
    },
    {
      "id_marca": 57,
      "code": 671,
      "description": "Antara"
    },
    {
      "id_marca": 57,
      "code": 672,
      "description": "Gt"
    },
    {
      "id_marca": 57,
      "code": 673,
      "description": "Combo"
    },
    {
      "id_marca": 57,
      "code": 674,
      "description": "Movano"
    },
    {
      "id_marca": 57,
      "code": 675,
      "description": "Vivaro"
    },
    {
      "id_marca": 57,
      "code": 676,
      "description": "Kadett"
    },
    {
      "id_marca": 57,
      "code": 677,
      "description": "Monza"
    },
    {
      "id_marca": 57,
      "code": 678,
      "description": "Senator"
    },
    {
      "id_marca": 57,
      "code": 679,
      "description": "Rekord"
    },
    {
      "id_marca": 57,
      "code": 680,
      "description": "Manta"
    },
    {
      "id_marca": 57,
      "code": 681,
      "description": "Ascona"
    },
    {
      "id_marca": 57,
      "code": 682,
      "description": "Insignia"
    },
    {
      "id_marca": 57,
      "code": 683,
      "description": "Zafira Tourer"
    },
    {
      "id_marca": 57,
      "code": 684,
      "description": "Ampera"
    },
    {
      "id_marca": 57,
      "code": 685,
      "description": "Mokka"
    },
    {
      "id_marca": 57,
      "code": 686,
      "description": "Adam"
    },
    {
      "id_marca": 58,
      "code": 687,
      "description": "306"
    },
    {
      "id_marca": 58,
      "code": 688,
      "description": "605"
    },
    {
      "id_marca": 58,
      "code": 689,
      "description": "106"
    },
    {
      "id_marca": 58,
      "code": 690,
      "description": "205"
    },
    {
      "id_marca": 58,
      "code": 691,
      "description": "405"
    },
    {
      "id_marca": 58,
      "code": 692,
      "description": "406"
    },
    {
      "id_marca": 58,
      "code": 693,
      "description": "806"
    },
    {
      "id_marca": 58,
      "code": 694,
      "description": "807"
    },
    {
      "id_marca": 58,
      "code": 695,
      "description": "407"
    },
    {
      "id_marca": 58,
      "code": 696,
      "description": "307"
    },
    {
      "id_marca": 58,
      "code": 697,
      "description": "206"
    },
    {
      "id_marca": 58,
      "code": 698,
      "description": "607"
    },
    {
      "id_marca": 58,
      "code": 699,
      "description": "308"
    },
    {
      "id_marca": 58,
      "code": 700,
      "description": "307 Sw"
    },
    {
      "id_marca": 58,
      "code": 701,
      "description": "206 Sw"
    },
    {
      "id_marca": 58,
      "code": 702,
      "description": "407 Sw"
    },
    {
      "id_marca": 58,
      "code": 703,
      "description": "1007"
    },
    {
      "id_marca": 58,
      "code": 704,
      "description": "107"
    },
    {
      "id_marca": 58,
      "code": 705,
      "description": "207"
    },
    {
      "id_marca": 58,
      "code": 706,
      "description": "4007"
    },
    {
      "id_marca": 58,
      "code": 707,
      "description": "Boxer"
    },
    {
      "id_marca": 58,
      "code": 708,
      "description": "Partner"
    },
    {
      "id_marca": 58,
      "code": 709,
      "description": "J5"
    },
    {
      "id_marca": 58,
      "code": 710,
      "description": "604"
    },
    {
      "id_marca": 58,
      "code": 711,
      "description": "505"
    },
    {
      "id_marca": 58,
      "code": 712,
      "description": "309"
    },
    {
      "id_marca": 58,
      "code": 713,
      "description": "Bipper"
    },
    {
      "id_marca": 58,
      "code": 714,
      "description": "Partner Origin"
    },
    {
      "id_marca": 58,
      "code": 715,
      "description": "3008"
    },
    {
      "id_marca": 58,
      "code": 716,
      "description": "5008"
    },
    {
      "id_marca": 58,
      "code": 717,
      "description": "Rcz"
    },
    {
      "id_marca": 58,
      "code": 718,
      "description": "508"
    },
    {
      "id_marca": 58,
      "code": 719,
      "description": "Ion"
    },
    {
      "id_marca": 58,
      "code": 720,
      "description": "208"
    },
    {
      "id_marca": 58,
      "code": 721,
      "description": "4008"
    },
    {
      "id_marca": 59,
      "code": 722,
      "description": "Trans Sport"
    },
    {
      "id_marca": 59,
      "code": 723,
      "description": "Firebird"
    },
    {
      "id_marca": 59,
      "code": 724,
      "description": "Trans Am"
    },
    {
      "id_marca": 60,
      "code": 725,
      "description": "911"
    },
    {
      "id_marca": 60,
      "code": 726,
      "description": "Boxster"
    },
    {
      "id_marca": 60,
      "code": 727,
      "description": "Cayenne"
    },
    {
      "id_marca": 60,
      "code": 728,
      "description": "Carrera Gt"
    },
    {
      "id_marca": 60,
      "code": 729,
      "description": "Cayman"
    },
    {
      "id_marca": 60,
      "code": 730,
      "description": "928"
    },
    {
      "id_marca": 60,
      "code": 731,
      "description": "968"
    },
    {
      "id_marca": 60,
      "code": 732,
      "description": "944"
    },
    {
      "id_marca": 60,
      "code": 733,
      "description": "924"
    },
    {
      "id_marca": 60,
      "code": 734,
      "description": "Panamera"
    },
    {
      "id_marca": 60,
      "code": 735,
      "description": "918"
    },
    {
      "id_marca": 61,
      "code": 736,
      "description": "Megane"
    },
    {
      "id_marca": 61,
      "code": 737,
      "description": "Safrane"
    },
    {
      "id_marca": 61,
      "code": 738,
      "description": "Laguna"
    },
    {
      "id_marca": 61,
      "code": 739,
      "description": "Clio"
    },
    {
      "id_marca": 61,
      "code": 740,
      "description": "Twingo"
    },
    {
      "id_marca": 61,
      "code": 741,
      "description": "Nevada"
    },
    {
      "id_marca": 61,
      "code": 742,
      "description": "Espace"
    },
    {
      "id_marca": 61,
      "code": 743,
      "description": "Spider"
    },
    {
      "id_marca": 61,
      "code": 744,
      "description": "Scenic"
    },
    {
      "id_marca": 61,
      "code": 745,
      "description": "Grand Espace"
    },
    {
      "id_marca": 61,
      "code": 746,
      "description": "Avantime"
    },
    {
      "id_marca": 61,
      "code": 747,
      "description": "Vel Satis"
    },
    {
      "id_marca": 61,
      "code": 748,
      "description": "Grand Scenic"
    },
    {
      "id_marca": 61,
      "code": 749,
      "description": "Clio Campus"
    },
    {
      "id_marca": 61,
      "code": 750,
      "description": "Modus"
    },
    {
      "id_marca": 61,
      "code": 751,
      "description": "Express"
    },
    {
      "id_marca": 61,
      "code": 752,
      "description": "Trafic"
    },
    {
      "id_marca": 61,
      "code": 753,
      "description": "Master"
    },
    {
      "id_marca": 61,
      "code": 754,
      "description": "Kangoo"
    },
    {
      "id_marca": 61,
      "code": 755,
      "description": "Mascott"
    },
    {
      "id_marca": 61,
      "code": 756,
      "description": "Master Propulsion"
    },
    {
      "id_marca": 61,
      "code": 757,
      "description": "Maxity"
    },
    {
      "id_marca": 61,
      "code": 758,
      "description": "R19"
    },
    {
      "id_marca": 61,
      "code": 759,
      "description": "R25"
    },
    {
      "id_marca": 61,
      "code": 760,
      "description": "R5"
    },
    {
      "id_marca": 61,
      "code": 761,
      "description": "R21"
    },
    {
      "id_marca": 61,
      "code": 762,
      "description": "R4"
    },
    {
      "id_marca": 61,
      "code": 763,
      "description": "Alpine"
    },
    {
      "id_marca": 61,
      "code": 764,
      "description": "Fuego"
    },
    {
      "id_marca": 61,
      "code": 765,
      "description": "R18"
    },
    {
      "id_marca": 61,
      "code": 766,
      "description": "R11"
    },
    {
      "id_marca": 61,
      "code": 767,
      "description": "R9"
    },
    {
      "id_marca": 61,
      "code": 768,
      "description": "R6"
    },
    {
      "id_marca": 61,
      "code": 769,
      "description": "Grand Modus"
    },
    {
      "id_marca": 61,
      "code": 770,
      "description": "Kangoo Combi"
    },
    {
      "id_marca": 61,
      "code": 771,
      "description": "Koleos"
    },
    {
      "id_marca": 61,
      "code": 772,
      "description": "Fluence"
    },
    {
      "id_marca": 61,
      "code": 773,
      "description": "Wind"
    },
    {
      "id_marca": 61,
      "code": 774,
      "description": "Latitude"
    },
    {
      "id_marca": 61,
      "code": 775,
      "description": "Grand Kangoo Combi"
    },
    {
      "id_marca": 62,
      "code": 776,
      "description": "Siver Dawn"
    },
    {
      "id_marca": 62,
      "code": 777,
      "description": "Silver Spur"
    },
    {
      "id_marca": 62,
      "code": 778,
      "description": "Park Ward"
    },
    {
      "id_marca": 62,
      "code": 779,
      "description": "Silver Seraph"
    },
    {
      "id_marca": 62,
      "code": 780,
      "description": "Corniche"
    },
    {
      "id_marca": 62,
      "code": 781,
      "description": "Phantom"
    },
    {
      "id_marca": 62,
      "code": 782,
      "description": "Touring"
    },
    {
      "id_marca": 62,
      "code": 783,
      "description": "Silvier"
    },
    {
      "id_marca": 63,
      "code": 784,
      "description": "800"
    },
    {
      "id_marca": 63,
      "code": 785,
      "description": "600"
    },
    {
      "id_marca": 63,
      "code": 786,
      "description": "100"
    },
    {
      "id_marca": 63,
      "code": 787,
      "description": "200"
    },
    {
      "id_marca": 63,
      "code": 788,
      "description": "Coupe"
    },
    {
      "id_marca": 63,
      "code": 789,
      "description": "400"
    },
    {
      "id_marca": 63,
      "code": 790,
      "description": "45"
    },
    {
      "id_marca": 63,
      "code": 791,
      "description": "Cabriolet"
    },
    {
      "id_marca": 63,
      "code": 792,
      "description": "25"
    },
    {
      "id_marca": 63,
      "code": 793,
      "description": "Mini"
    },
    {
      "id_marca": 63,
      "code": 794,
      "description": "75"
    },
    {
      "id_marca": 63,
      "code": 795,
      "description": "Streetwise"
    },
    {
      "id_marca": 63,
      "code": 796,
      "description": "Sd"
    },
    {
      "id_marca": 64,
      "code": 797,
      "description": "900"
    },
    {
      "id_marca": 64,
      "code": 798,
      "description": "93"
    },
    {
      "id_marca": 64,
      "code": 799,
      "description": "9000"
    },
    {
      "id_marca": 64,
      "code": 800,
      "description": "95"
    },
    {
      "id_marca": 64,
      "code": 801,
      "description": "93x"
    },
    {
      "id_marca": 64,
      "code": 802,
      "description": "94x"
    },
    {
      "id_marca": 65,
      "code": 803,
      "description": "300"
    },
    {
      "id_marca": 65,
      "code": 804,
      "description": "350"
    },
    {
      "id_marca": 65,
      "code": 805,
      "description": "Anibal"
    },
    {
      "id_marca": 65,
      "code": 806,
      "description": "Anibal Pick Up"
    },
    {
      "id_marca": 66,
      "code": 807,
      "description": "Ibiza"
    },
    {
      "id_marca": 66,
      "code": 808,
      "description": "Cordoba"
    },
    {
      "id_marca": 66,
      "code": 809,
      "description": "Toledo"
    },
    {
      "id_marca": 66,
      "code": 810,
      "description": "Marbella"
    },
    {
      "id_marca": 66,
      "code": 811,
      "description": "Alhambra"
    },
    {
      "id_marca": 66,
      "code": 812,
      "description": "Arosa"
    },
    {
      "id_marca": 66,
      "code": 813,
      "description": "Leon"
    },
    {
      "id_marca": 66,
      "code": 814,
      "description": "Altea"
    },
    {
      "id_marca": 66,
      "code": 815,
      "description": "Altea Xl"
    },
    {
      "id_marca": 66,
      "code": 816,
      "description": "Altea Freetrack"
    },
    {
      "id_marca": 66,
      "code": 817,
      "description": "Terra"
    },
    {
      "id_marca": 66,
      "code": 818,
      "description": "Inca"
    },
    {
      "id_marca": 66,
      "code": 819,
      "description": "Malaga"
    },
    {
      "id_marca": 66,
      "code": 820,
      "description": "Ronda"
    },
    {
      "id_marca": 66,
      "code": 821,
      "description": "Exeo"
    },
    {
      "id_marca": 66,
      "code": 822,
      "description": "Mii"
    },
    {
      "id_marca": 67,
      "code": 823,
      "description": "Felicia"
    },
    {
      "id_marca": 67,
      "code": 824,
      "description": "Forman"
    },
    {
      "id_marca": 67,
      "code": 825,
      "description": "Octavia"
    },
    {
      "id_marca": 67,
      "code": 826,
      "description": "Octavia Tour"
    },
    {
      "id_marca": 67,
      "code": 827,
      "description": "Fabia"
    },
    {
      "id_marca": 67,
      "code": 828,
      "description": "Superb"
    },
    {
      "id_marca": 67,
      "code": 829,
      "description": "Roomster"
    },
    {
      "id_marca": 67,
      "code": 830,
      "description": "Scout"
    },
    {
      "id_marca": 67,
      "code": 831,
      "description": "Pickup"
    },
    {
      "id_marca": 67,
      "code": 832,
      "description": "Favorit"
    },
    {
      "id_marca": 67,
      "code": 833,
      "description": "130"
    },
    {
      "id_marca": 67,
      "code": 834,
      "description": "S"
    },
    {
      "id_marca": 67,
      "code": 835,
      "description": "Yeti"
    },
    {
      "id_marca": 67,
      "code": 836,
      "description": "Citigo"
    },
    {
      "id_marca": 67,
      "code": 837,
      "description": "Rapid"
    },
    {
      "id_marca": 68,
      "code": 838,
      "description": "Smart"
    },
    {
      "id_marca": 68,
      "code": 839,
      "description": "Citycoupe"
    },
    {
      "id_marca": 68,
      "code": 840,
      "description": "Fortwo"
    },
    {
      "id_marca": 68,
      "code": 841,
      "description": "Cabrio"
    },
    {
      "id_marca": 68,
      "code": 842,
      "description": "Crossblade"
    },
    {
      "id_marca": 68,
      "code": 843,
      "description": "Roadster"
    },
    {
      "id_marca": 68,
      "code": 844,
      "description": "Forfour"
    },
    {
      "id_marca": 69,
      "code": 845,
      "description": "Korando"
    },
    {
      "id_marca": 69,
      "code": 846,
      "description": "Family"
    },
    {
      "id_marca": 69,
      "code": 847,
      "description": "K4d"
    },
    {
      "id_marca": 69,
      "code": 848,
      "description": "Musso"
    },
    {
      "id_marca": 69,
      "code": 849,
      "description": "Korando Kj"
    },
    {
      "id_marca": 69,
      "code": 850,
      "description": "Rexton"
    },
    {
      "id_marca": 69,
      "code": 851,
      "description": "Rexton Ii"
    },
    {
      "id_marca": 69,
      "code": 852,
      "description": "Rodius"
    },
    {
      "id_marca": 69,
      "code": 853,
      "description": "Kyron"
    },
    {
      "id_marca": 69,
      "code": 854,
      "description": "Actyon"
    },
    {
      "id_marca": 69,
      "code": 855,
      "description": "Sports Pick Up"
    },
    {
      "id_marca": 69,
      "code": 856,
      "description": "Actyon Sports Pick Up"
    },
    {
      "id_marca": 69,
      "code": 857,
      "description": "Kodando"
    },
    {
      "id_marca": 70,
      "code": 858,
      "description": "Legacy"
    },
    {
      "id_marca": 70,
      "code": 859,
      "description": "Impreza"
    },
    {
      "id_marca": 70,
      "code": 860,
      "description": "Svx"
    },
    {
      "id_marca": 70,
      "code": 861,
      "description": "Justy"
    },
    {
      "id_marca": 70,
      "code": 862,
      "description": "Outback"
    },
    {
      "id_marca": 70,
      "code": 863,
      "description": "Forester"
    },
    {
      "id_marca": 70,
      "code": 864,
      "description": "G3x Justy"
    },
    {
      "id_marca": 70,
      "code": 865,
      "description": "B9 Tribeca"
    },
    {
      "id_marca": 70,
      "code": 866,
      "description": "Xt"
    },
    {
      "id_marca": 70,
      "code": 867,
      "description": "1800"
    },
    {
      "id_marca": 70,
      "code": 868,
      "description": "Tribeca"
    },
    {
      "id_marca": 70,
      "code": 869,
      "description": "Wrx Sti"
    },
    {
      "id_marca": 70,
      "code": 870,
      "description": "Trezia"
    },
    {
      "id_marca": 70,
      "code": 871,
      "description": "Xv"
    },
    {
      "id_marca": 70,
      "code": 872,
      "description": "Brz"
    },
    {
      "id_marca": 71,
      "code": 873,
      "description": "Maruti"
    },
    {
      "id_marca": 71,
      "code": 874,
      "description": "Swift"
    },
    {
      "id_marca": 71,
      "code": 875,
      "description": "Vitara"
    },
    {
      "id_marca": 71,
      "code": 876,
      "description": "Baleno"
    },
    {
      "id_marca": 71,
      "code": 877,
      "description": "Samurai"
    },
    {
      "id_marca": 71,
      "code": 878,
      "description": "Alto"
    },
    {
      "id_marca": 71,
      "code": 879,
      "description": "Wagon R"
    },
    {
      "id_marca": 71,
      "code": 880,
      "description": "Jimny"
    },
    {
      "id_marca": 71,
      "code": 881,
      "description": "Grand Vitara"
    },
    {
      "id_marca": 71,
      "code": 882,
      "description": "Ignis"
    },
    {
      "id_marca": 71,
      "code": 883,
      "description": "Liana"
    },
    {
      "id_marca": 71,
      "code": 884,
      "description": "Grand Vitara Xl7"
    },
    {
      "id_marca": 71,
      "code": 885,
      "description": "Sx4"
    },
    {
      "id_marca": 71,
      "code": 886,
      "description": "Splash"
    },
    {
      "id_marca": 71,
      "code": 887,
      "description": "Kizashi"
    },
    {
      "id_marca": 72,
      "code": 888,
      "description": "Samba"
    },
    {
      "id_marca": 72,
      "code": 889,
      "description": "Tagora"
    },
    {
      "id_marca": 72,
      "code": 890,
      "description": "Solara"
    },
    {
      "id_marca": 72,
      "code": 891,
      "description": "Horizon"
    },
    {
      "id_marca": 73,
      "code": 892,
      "description": "Telcosport"
    },
    {
      "id_marca": 73,
      "code": 893,
      "description": "Telco"
    },
    {
      "id_marca": 73,
      "code": 894,
      "description": "Sumo"
    },
    {
      "id_marca": 73,
      "code": 895,
      "description": "Safari"
    },
    {
      "id_marca": 73,
      "code": 896,
      "description": "Indica"
    },
    {
      "id_marca": 73,
      "code": 897,
      "description": "Indigo"
    },
    {
      "id_marca": 73,
      "code": 898,
      "description": "Grand Safari"
    },
    {
      "id_marca": 73,
      "code": 899,
      "description": "Tl Pick Up"
    },
    {
      "id_marca": 73,
      "code": 900,
      "description": "Xenon Pick Up"
    },
    {
      "id_marca": 73,
      "code": 901,
      "description": "Vista"
    },
    {
      "id_marca": 73,
      "code": 902,
      "description": "Xenon"
    },
    {
      "id_marca": 73,
      "code": 903,
      "description": "Aria"
    },
    {
      "id_marca": 74,
      "code": 904,
      "description": "Carina E"
    },
    {
      "id_marca": 74,
      "code": 905,
      "description": "4runner"
    },
    {
      "id_marca": 74,
      "code": 906,
      "description": "Camry"
    },
    {
      "id_marca": 74,
      "code": 907,
      "description": "Rav4"
    },
    {
      "id_marca": 74,
      "code": 908,
      "description": "Celica"
    },
    {
      "id_marca": 74,
      "code": 909,
      "description": "Supra"
    },
    {
      "id_marca": 74,
      "code": 910,
      "description": "Paseo"
    },
    {
      "id_marca": 74,
      "code": 911,
      "description": "Land Cruiser 80"
    },
    {
      "id_marca": 74,
      "code": 912,
      "description": "Land Cruiser 100"
    },
    {
      "id_marca": 74,
      "code": 913,
      "description": "Land Cruiser"
    },
    {
      "id_marca": 74,
      "code": 914,
      "description": "Land Cruiser 90"
    },
    {
      "id_marca": 74,
      "code": 915,
      "description": "Corolla"
    },
    {
      "id_marca": 74,
      "code": 916,
      "description": "Auris"
    },
    {
      "id_marca": 74,
      "code": 917,
      "description": "Avensis"
    },
    {
      "id_marca": 74,
      "code": 918,
      "description": "Picnic"
    },
    {
      "id_marca": 74,
      "code": 919,
      "description": "Yaris"
    },
    {
      "id_marca": 74,
      "code": 920,
      "description": "Yaris Verso"
    },
    {
      "id_marca": 74,
      "code": 921,
      "description": "Mr2"
    },
    {
      "id_marca": 74,
      "code": 922,
      "description": "Previa"
    },
    {
      "id_marca": 74,
      "code": 923,
      "description": "Prius"
    },
    {
      "id_marca": 74,
      "code": 924,
      "description": "Avensis Verso"
    },
    {
      "id_marca": 74,
      "code": 925,
      "description": "Corolla Verso"
    },
    {
      "id_marca": 74,
      "code": 926,
      "description": "Corolla Sedan"
    },
    {
      "id_marca": 74,
      "code": 927,
      "description": "Aygo"
    },
    {
      "id_marca": 74,
      "code": 928,
      "description": "Hilux"
    },
    {
      "id_marca": 74,
      "code": 929,
      "description": "Dyna"
    },
    {
      "id_marca": 74,
      "code": 930,
      "description": "Land Cruiser 200"
    },
    {
      "id_marca": 74,
      "code": 931,
      "description": "Verso"
    },
    {
      "id_marca": 74,
      "code": 932,
      "description": "Iq"
    },
    {
      "id_marca": 74,
      "code": 933,
      "description": "Urban Cruiser"
    },
    {
      "id_marca": 74,
      "code": 934,
      "description": "Gt86"
    },
    {
      "id_marca": 75,
      "code": 935,
      "description": "100"
    },
    {
      "id_marca": 75,
      "code": 936,
      "description": "121"
    },
    {
      "id_marca": 76,
      "code": 937,
      "description": "214"
    },
    {
      "id_marca": 76,
      "code": 938,
      "description": "110 Stawra"
    },
    {
      "id_marca": 76,
      "code": 939,
      "description": "111 Stawra"
    },
    {
      "id_marca": 76,
      "code": 940,
      "description": "215"
    },
    {
      "id_marca": 76,
      "code": 941,
      "description": "112 Stawra"
    },
    {
      "id_marca": 77,
      "code": 942,
      "description": "Passat"
    },
    {
      "id_marca": 77,
      "code": 943,
      "description": "Golf"
    },
    {
      "id_marca": 77,
      "code": 944,
      "description": "Vento"
    },
    {
      "id_marca": 77,
      "code": 945,
      "description": "Polo"
    },
    {
      "id_marca": 77,
      "code": 946,
      "description": "Corrado"
    },
    {
      "id_marca": 77,
      "code": 947,
      "description": "Sharan"
    },
    {
      "id_marca": 77,
      "code": 948,
      "description": "Lupo"
    },
    {
      "id_marca": 77,
      "code": 949,
      "description": "Bora"
    },
    {
      "id_marca": 77,
      "code": 950,
      "description": "Jetta"
    },
    {
      "id_marca": 77,
      "code": 951,
      "description": "New Beetle"
    },
    {
      "id_marca": 77,
      "code": 952,
      "description": "Phaeton"
    },
    {
      "id_marca": 77,
      "code": 953,
      "description": "Touareg"
    },
    {
      "id_marca": 77,
      "code": 954,
      "description": "Touran"
    },
    {
      "id_marca": 77,
      "code": 955,
      "description": "Multivan"
    },
    {
      "id_marca": 77,
      "code": 956,
      "description": "Caddy"
    },
    {
      "id_marca": 77,
      "code": 957,
      "description": "Golf Plus"
    },
    {
      "id_marca": 77,
      "code": 958,
      "description": "Fox"
    },
    {
      "id_marca": 77,
      "code": 959,
      "description": "Eos"
    },
    {
      "id_marca": 77,
      "code": 960,
      "description": "Caravelle"
    },
    {
      "id_marca": 77,
      "code": 961,
      "description": "Tiguan"
    },
    {
      "id_marca": 77,
      "code": 962,
      "description": "Transporter"
    },
    {
      "id_marca": 77,
      "code": 963,
      "description": "Lt"
    },
    {
      "id_marca": 77,
      "code": 964,
      "description": "Taro"
    },
    {
      "id_marca": 77,
      "code": 965,
      "description": "Crafter"
    },
    {
      "id_marca": 77,
      "code": 966,
      "description": "California"
    },
    {
      "id_marca": 77,
      "code": 967,
      "description": "Santana"
    },
    {
      "id_marca": 77,
      "code": 968,
      "description": "Scirocco"
    },
    {
      "id_marca": 77,
      "code": 969,
      "description": "Passat Cc"
    },
    {
      "id_marca": 77,
      "code": 970,
      "description": "Amarok"
    },
    {
      "id_marca": 77,
      "code": 971,
      "description": "Beetle"
    },
    {
      "id_marca": 77,
      "code": 972,
      "description": "Up"
    },
    {
      "id_marca": 77,
      "code": 973,
      "description": "Cc"
    },
    {
      "id_marca": 78,
      "code": 974,
      "description": "440"
    },
    {
      "id_marca": 78,
      "code": 975,
      "description": "850"
    },
    {
      "id_marca": 78,
      "code": 976,
      "description": "S70"
    },
    {
      "id_marca": 78,
      "code": 977,
      "description": "V70"
    },
    {
      "id_marca": 78,
      "code": 978,
      "description": "V70 Classic"
    },
    {
      "id_marca": 78,
      "code": 979,
      "description": "940"
    },
    {
      "id_marca": 78,
      "code": 980,
      "description": "480"
    },
    {
      "id_marca": 78,
      "code": 981,
      "description": "460"
    },
    {
      "id_marca": 78,
      "code": 982,
      "description": "960"
    },
    {
      "id_marca": 78,
      "code": 983,
      "description": "S90"
    },
    {
      "id_marca": 78,
      "code": 984,
      "description": "V90"
    },
    {
      "id_marca": 78,
      "code": 985,
      "description": "Classic"
    },
    {
      "id_marca": 78,
      "code": 986,
      "description": "S40"
    },
    {
      "id_marca": 78,
      "code": 987,
      "description": "V40"
    },
    {
      "id_marca": 78,
      "code": 988,
      "description": "V50"
    },
    {
      "id_marca": 78,
      "code": 989,
      "description": "V70 Xc"
    },
    {
      "id_marca": 78,
      "code": 990,
      "description": "Xc70"
    },
    {
      "id_marca": 78,
      "code": 991,
      "description": "C70"
    },
    {
      "id_marca": 78,
      "code": 992,
      "description": "S80"
    },
    {
      "id_marca": 78,
      "code": 993,
      "description": "S60"
    },
    {
      "id_marca": 78,
      "code": 994,
      "description": "Xc90"
    },
    {
      "id_marca": 78,
      "code": 995,
      "description": "C30"
    },
    {
      "id_marca": 78,
      "code": 996,
      "description": "780"
    },
    {
      "id_marca": 78,
      "code": 997,
      "description": "760"
    },
    {
      "id_marca": 78,
      "code": 998,
      "description": "740"
    },
    {
      "id_marca": 78,
      "code": 999,
      "description": "240"
    },
    {
      "id_marca": 78,
      "code": 1000,
      "description": "360"
    },
    {
      "id_marca": 78,
      "code": 1001,
      "description": "340"
    },
    {
      "id_marca": 78,
      "code": 1002,
      "description": "Xc60"
    },
    {
      "id_marca": 78,
      "code": 1003,
      "description": "V60"
    },
    {
      "id_marca": 78,
      "code": 1004,
      "description": "V40 Cross Country"
    },
    {
      "id_marca": 79,
      "code": 1005,
      "description": "353"
    },
    {
      "id_marca": 53,
      "code": 1006,
      "description": "Mini"
    },
    {
      "id_marca": 53,
      "code": 1007,
      "description": "Countryman"
    },
    {
      "id_marca": 53,
      "code": 1008,
      "description": "Paceman"
    }
  ]
}